656565689733679821 1000 47338887651
554565623332270001 1000 88333000012
123451222358994331 1666 47338887651
999997778884442334 1456 99333498006
112233445566778899 1000 67774599001
221133445566778899 1000 99333498006
